{
  "name": "Grepon",
  "description": "Grépon checks the security level of your domain",
  "repository": {
    "url": "https://gitlab.com/adminrezo/grepon",
    "license": "GPLV3"
  },
  "keywords": [
    "Ruby",
    "Rails",
    "Security",
    "Web"
  ]
}
