@startuml
actor User
User -> Headers : Ask headers
Headers -> Score : Ask header score
activate Score
note over Score : Calc score
Score -> Headers : Answer score
deactivate Score
Headers -> User : Anwser
@enduml
